{
  "development": {
    "dialect": "sqlite",
    "storage": "./db.development.sqlite"
  },
  "test": {
    "dialect": "sqlite",
    "storage": "./db.development.sqlite"
  },
  "production": {
    "dialect": "sqlite",
    "storage": "./db.development.sqlite"
  }
}